{
	"date": "2018-06-07T07:54:49.660Z",
	"application": "oauth2-ms",
	"version": "{{ oauth2ms_image_version }}",
	"modules": {
		"mongo": {
			"database": "{{ oauth2ms_dbname }}",
			"local": true
		},
		"oauth2-ms": {
			"https": {
				"enabled": false
			},
			"contextUrl": "{{ oauth2_context_url }}",
			"lock-setting": {
				"attempts": 5,
				"delay": 30,
				"passwordValidity": 90,
				"delayAlert": 7,
				"sendHour": "6",
				"sendMinute": "0",
				"desactivationMin": 10,
				"desactivationMax": 365
			},
			"saaConnect": {
				"usernameTemplate": "{{ oauth2ms_saaConnect_usernameTemplate }}",
				"emailTemplates": [],
				"codeUrl": "{{ oauth2ms_saaConnect_codeurl }}",
				"scope": [
					"profile",
					"email",
					"other",
					"client_id"
				],
				"clientId": "MARI",
				"tokenUrl": "{{ oauth2ms_saaConnect_tokenUrl }}",
				"scopeUrl": "{{ oauth2ms_saaConnect_scopeUrl }}",
				"redirectUrl": "{{ pariv_oauth2_callback_url }}"
			},
			"saaConnectPrivateData": {
				"saaUsername": "MARI",
				"saaPassword": "X61jxjulo5v7dTZsxzRx"
			},
			"perimeters-repository": {
				"region-sncf": {
					"headers": {
						"Authorization": "Bearer eyJhbGciOiJIUzI1NiIsInR5cCI6IkpXVCJ9.eyJwcm9maWxlIjoib2F1dGgybXMiLCJzY29wZSI6WyJmcmFuY2UiXSwiaWF0IjoxNTEyMTM2MTk3fQ.KNmPmLMhkUZNAk8Zwf_gOK1_wsC-8FQBnCtQpqdKKqY",
						"Accept": "application/json",
						"Content-Type": "application/json"
					},
					"uri": "http://topographic-place.internal:3000/v3/api/sncf/",
					"id": "privateCode",
					"value": "name"
				},
				"region-adm": {
					"headers": {
						"Authorization": "Bearer eyJhbGciOiJIUzI1NiIsInR5cCI6IkpXVCJ9.eyJwcm9maWxlIjoib2F1dGgybXMiLCJzY29wZSI6WyJmcmFuY2UiXSwiaWF0IjoxNTEyMTM2MTk3fQ.KNmPmLMhkUZNAk8Zwf_gOK1_wsC-8FQBnCtQpqdKKqY",
						"Accept": "application/json",
						"Content-Type": "application/json"
					},
					"uri": "http://topographic-place.internal:3000/v3/api/administrative",
					"id": "privateCode",
					"value": "name"
				},
				"organisation": {
					"headers": {
						"Accept": "application/json",
						"Content-Type": "application/json"
					},
					"uri": "http://bea-2.internal:3000/organization",
					"id": "id",
					"value": "id"
				}
			}
		},
		"cache": {
			"local": true
		},
		"log": {
			"local": false,
			"level": "{{ oauth2ms_loglevel }}"
		},
		"notification": {
			"auth": {
				"user": "acc",
				"pass": "acc"
			},
			"tls": {
				"rejectUnauthorized": false
			}
		},
		"prototype-client": {
			"token": "eyJhbGciOiJIUzI1NiIsInR5cCI6IkpXVCJ9.eyJwcm9maWxlIjoiYWRtaW4iLCJzY29wZSI6W10sImlhdCI6MTUyMjA3NzY1MX0.rJAHWhNnXyzOTd57l0bAmnF1DFAHrkL9AQDMx-foano",
			"dependencies": {
				"services": {
					"user": {
						"version": "2",
						"endPoint": "{{ oauth2ms_user_endpoint }}"
					}
				}
			}
		}
	},
	"techVars": {
		"EVENT_POOL_SIZE": 5,
		"REQUEST_BODY_SIZE": "1mb",
		"APP_REDIS_HOST": "{{ sentinel_host }}",
		"APP_REDIS_PORT": "{{ sentinel_port }}",
		"APP_REDIS_NAME": "{{ redis_name }}",
		"APP_LOG_HOST": "{{ logms_host }}",
		"APP_LOG_PORT": "{{ logms_exposed_zmq_port }}",
		"APP_MONGO_HOST": "{{ mongodb_host }}",
		"APP_MONGO_PORT": "{{ mongodb_port }}",
		"APP_MONGO_USERNAME": "{{ mongodb_username }}",
		"APP_MONGO_PASSWORD": "{{ mongodb_password }}",
  		"APP_MONGO_REPLICASETNAME" : "{{ mongodb_replicasetname }}",
		"APP_SMTP_HOST": "{{ smtp_host }}",
		"APP_SMTP_PORT": "{{ smtp_port }}",
		"JWT_SESSION_TIME": 3600,
		"MONITORING": "1",
		"JWT_SECRET": "prototype"
	}
}