{
	"date": "2018-06-07T07:54:49.200Z",
	"application": "motif-retard",
	"modules": {
		"motif-retard": {},
		"log": {
			"level": "debug",
			"local": true
		},
		"mongo": {
			"local": true,
			"database": "{{ motifretard_dbname }}"
		}
	},
	"techVars": {
		"EVENT_POOL_SIZE": 5,
		"REQUEST_BODY_SIZE": "1mb",
		"MONITORING": "1",
		"JWT_SECRET": "prototype",
		"APP_MONGO_HOST": "{{ mongodb_host }}",
		"APP_MONGO_PORT": "{{ mongodb_port }}",
		"APP_MONGO_USERNAME": "{{ mongodb_username }}",
		"APP_MONGO_PASSWORD": "{{ mongodb_password }}",
		"APP_MONGO_REPLICASETNAME" : "{{ mongodb_replicasetname }}",
		"APP_REDIS_NAME": "{{ redis_name }}",
		"APP_REDIS_HOST": "{{ sentinel_host }}",
		"APP_REDIS_PORT": "{{ sentinel_port }}",
		"APP_LOG_HOST": "{{ logms_host }}",
		"APP_LOG_PORT": "{{ logms_exposed_zmq_port }}",
		"APP_SMTP_HOST": "{{ smtp_host }}",
		"APP_SMTP_PORT": "{{ smtp_port }}"
	}
}